{
    "border": "pixel",
    "floating": "auto_off",
    "fullscreen_mode": 0,
    "layout": "splith",
    "percent": 1,
    "type": "con",
    "nodes": [
        {
            "border": "none",
            "current_border_width": 2,
            "floating": "auto_off",
            "geometry": {
               "height": 1053,
               "width": 956,
               "x": 0,
               "y": 0
            },
            "name": "Text editor",
            "percent": 0.552083333333333,
            "swallows": [
               {
               "class": "^Sublime_text$"
               }
            ],
            "type": "con"
        },
        {
            "border": "pixel",
            "floating": "auto_off",
            "layout": "tabbed",
            "percent": 0.447916666666667,
            "type": "con",
            "nodes": [
                {
                    "border": "pixel",
                    "floating": "auto_off",
                    "layout": "splitv",
                    "percent": 0.5,
                    "type": "con",
                    "nodes": [
                        {
                            "border": "normal",
                            "current_border_width": 2,
                            "floating": "auto_off",
                            "geometry": {
                               "height": 386,
                               "width": 642,
                               "x": 0,
                               "y": 0
                            },
                            "name": "Output",
                            "percent": 0.635226179018287,
                            "swallows": [
                               {
                               "class": "^Xfce4\\-terminal$",
                               "title": "^Output$"
                               }
                            ],
                            "type": "con"
                        },
                        {
                            "border": "normal",
                            "current_border_width": 2,
                            "floating": "auto_off",
                            "geometry": {
                               "height": 386,
                               "width": 642,
                               "x": 0,
                               "y": 0
                            },
                            "name": "Compiler messages",
                            "percent": 0.364773820981713,
                            "swallows": [
                               {
                               "class": "^Xfce4\\-terminal$",
                               "title": "^Compiler\\ messages$"
                               }
                            ],
                            "type": "con"
                        }
                    ]
                },
                {
                    "border": "pixel",
                    "current_border_width": 2,
                    "floating": "auto_off",
                    "geometry": {
                       "height": 386,
                       "width": 642,
                       "x": 0,
                       "y": 0
                    },
                    "name": "A terminal for other commands...",
                    "percent": 0.5,
                    "swallows": [
                       {
                       "class": "^Xfce4\\-terminal$"
                       }
                    ],
                    "type": "con"
                }
            ]
        }
    ]
}

